5 Relational Data | Big Analytics V: Programación en R
…
airport_locations <- airports %>%
  select(faa, lat, lon)

flights %>%
  select(year:day, hour, origin, dest) %>%
  left_join(
    airport_locations,
    by = c("origin" = "faa")
  ) %>%
  left_join(
    airport_locations,
    by = c("dest" = "faa")
  )

## # A tibble: 336,776 x 10
##     year month   day  hour origin dest  lat.x lon.x lat.y lon.y
##    <int> <int> <int> <dbl> <chr>  <chr> <dbl> <dbl> <dbl> <dbl>
##  1  2013     1     1     5 EWR    IAH    40.7 -74.2  30.0 -95.3
##  2  2013     1     1     5 LGA    IAH    40.8 -73.9  30.0 -95.3
##  3  2013     1     1     5 JFK    MIA    40.6 -73.8  25.8 -80.3
##  4  2013     1     1     5 JFK    BQN    40.6 -73.8  NA    NA  
##  5  2013     1     1     6 LGA    ATL    40.8 -73.9  33.6 -84.4
##  6  2013     1     1     5 EWR    ORD    40.7 -74.2  42.0 -87.9
##  7  2013     1     1     6 EWR    FLL    40.7 -74.2  26.1 -80.2
##  8  2013     1     1     6 LGA    IAD    40.8 -73.9  38.9 -77.5
##  9  2013     1     1     6 JFK    MCO    40.6 -73.8  28.4 -81.3
## 10  2013     1     1     6 LGA    ORD    40.8 -73.9  42.0 -87.9
## # ... with 336,766 more rows
…
flights %>%
  select(year:day, hour, origin, dest) %>%
  left_join(
    airport_locations,
    by = c("origin" = "faa")
  ) %>%
  left_join(
    airport_locations,
    by = c("dest" = "faa"),
    suffix = c("_origin", "_dest")
    # las variables lat y lon existentes en el tibble toman el sufijo _origin
    # las nuevas lat y lon tendrán el sufijo _dest
  )

## # A tibble: 336,776 x 10
##     year month   day  hour origin dest  lat_origin lon_origin lat_dest lon_dest
##    <int> <int> <int> <dbl> <chr>  <chr>      <dbl>      <dbl>    <dbl>    <dbl>
##  1  2013     1     1     5 EWR    IAH         40.7      -74.2     30.0    -95.3
##  2  2013     1     1     5 LGA    IAH         40.8      -73.9     30.0    -95.3
##  3  2013     1     1     5 JFK    MIA         40.6      -73.8     25.8    -80.3
##  4  2013     1     1     5 JFK    BQN         40.6      -73.8     NA       NA  
##  5  2013     1     1     6 LGA    ATL         40.8      -73.9     33.6    -84.4
##  6  2013     1     1     5 EWR    ORD         40.7      -74.2     42.0    -87.9
##  7  2013     1     1     6 EWR    FLL         40.7      -74.2     26.1    -80.2
##  8  2013     1     1     6 LGA    IAD         40.8      -73.9     38.9    -77.5
##  9  2013     1     1     6 JFK    MCO         40.6      -73.8     28.4    -81.3
## 10  2013     1     1     6 LGA    ORD         40.8      -73.9     42.0    -87.9
## # ... with 336,766 more rows
…
5.4.1 Ejercicios

Encuentra otra forma de obtener el mismo resultado que:

flights %>% 
  semi_join(top_dest)

sin usar semi_join(). Hint: Filtrar los destinos de flights de acuerdo a los 10 más populares.

R/

flights %>% 
  filter(dest %in% top_dest$dest)

## # A tibble: 141,145 x 19
##     year month   day dep_time sched_dep_time dep_delay arr_time sched_arr_time
##    <int> <int> <int>    <int>          <int>     <dbl>    <int>          <int>
##  1  2013     1     1      542            540         2      923            850
##  2  2013     1     1      554            600        -6      812            837
##  3  2013     1     1      554            558        -4      740            728
##  4  2013     1     1      555            600        -5      913            854
##  5  2013     1     1      557            600        -3      838            846
##  6  2013     1     1      558            600        -2      753            745
##  7  2013     1     1      558            600        -2      924            917
##  8  2013     1     1      558            600        -2      923            937
##  9  2013     1     1      559            559         0      702            706
## 10  2013     1     1      600            600         0      851            858
## # ... with 141,135 more rows, and 11 more variables: arr_delay <dbl>,
## #   carrier <chr>, flight <int>, tailnum <chr>, origin <chr>, dest <chr>,
## #   air_time <dbl>, distance <dbl>, hour <dbl>, minute <dbl>, time_hour <dttm>
Filtra flights para que solo recoja los datos de aquellos aviones que han volado al menos 100 veces.

R/

# usando semi-join
planes_gte100 <- flights %>%
  filter(!is.na(tailnum)) %>%
  group_by(tailnum) %>%
  count() %>%
  filter(n >= 100)

flights %>%
  semi_join(planes_gte100, by = "tailnum")

## # A tibble: 228,390 x 19
##     year month   day dep_time sched_dep_time dep_delay arr_time sched_arr_time
##    <int> <int> <int>    <int>          <int>     <dbl>    <int>          <int>
##  1  2013     1     1      517            515         2      830            819
##  2  2013     1     1      533            529         4      850            830
##  3  2013     1     1      544            545        -1     1004           1022
##  4  2013     1     1      554            558        -4      740            728
##  5  2013     1     1      555            600        -5      913            854
##  6  2013     1     1      557            600        -3      709            723
##  7  2013     1     1      557            600        -3      838            846
##  8  2013     1     1      558            600        -2      849            851
##  9  2013     1     1      558            600        -2      853            856
## 10  2013     1     1      558            600        -2      923            937
## # ... with 228,380 more rows, and 11 more variables: arr_delay <dbl>,
## #   carrier <chr>, flight <int>, tailnum <chr>, origin <chr>, dest <chr>,
## #   air_time <dbl>, distance <dbl>, hour <dbl>, minute <dbl>, time_hour <dttm>

# sin semi-join
flights %>%
  filter(!is.na(tailnum)) %>%
  group_by(tailnum) %>%
  mutate(n = n()) %>%
  filter(n >= 100)

## # A tibble: 228,390 x 20
## # Groups:   tailnum [1,217]
##     year month   day dep_time sched_dep_time dep_delay arr_time sched_arr_time
##    <int> <int> <int>    <int>          <int>     <dbl>    <int>          <int>
##  1  2013     1     1      517            515         2      830            819
##  2  2013     1     1      533            529         4      850            830
##  3  2013     1     1      544            545        -1     1004           1022
##  4  2013     1     1      554            558        -4      740            728
##  5  2013     1     1      555            600        -5      913            854
##  6  2013     1     1      557            600        -3      709            723
##  7  2013     1     1      557            600        -3      838            846
##  8  2013     1     1      558            600        -2      849            851
##  9  2013     1     1      558            600        -2      853            856
## 10  2013     1     1      558            600        -2      923            937
## # ... with 228,380 more rows, and 12 more variables: arr_delay <dbl>,
## #   carrier <chr>, flight <int>, tailnum <chr>, origin <chr>, dest <chr>,
## #   air_time <dbl>, distance <dbl>, hour <dbl>, minute <dbl>, time_hour <dttm>,
## #   n <int>
